Case Study 01 WC + JT
…
#5. Which state has the maximum alcoholic (ABV) beer? Which state has the most bitter (IBU) beer?

ABV_by_state <- beer_brew_df %>%
  group_by(State_full)%>% 
  summarise(Mean=mean(ABV,na.rm=TRUE),Median=median(ABV,na.rm=TRUE))

ABV_by_state

## # A tibble: 51 x 3
##    State_full             Mean Median
##    <fct>                 <dbl>  <dbl>
##  1 alabama              0.062  0.06  
##  2 alaska               0.0556 0.056 
##  3 arizona              0.0602 0.055 
##  4 arkansas             0.052  0.052 
##  5 california           0.0611 0.058 
##  6 colorado             0.0634 0.0605
##  7 connecticut          0.0611 0.06  
##  8 delaware             0.055  0.055 
##  9 district of columbia 0.0656 0.0625
## 10 florida              0.0599 0.057 
## # ... with 41 more rows

IBU_by_state <- beer_brew_df %>%
  group_by(State_full)%>% 
  summarise(Mean=mean(IBU,na.rm=TRUE),Median=median(IBU,na.rm=TRUE))

IBU_by_state

## # A tibble: 51 x 3
##    State_full            Mean Median
##    <fct>                <dbl>  <dbl>
##  1 alabama               51.2   43  
##  2 alaska                40.9   46  
##  3 arizona               35.2   20.5
##  4 arkansas              39     39  
##  5 california            46.3   42  
##  6 colorado              47.4   40  
##  7 connecticut           40.8   29  
##  8 delaware              52     52  
##  9 district of columbia  55.2   47.5
## 10 florida               46.8   55  
## # ... with 41 more rows
…
